{
    "Username": "اسم المستخدم",
    "Password": "كلمة المرور",
    "Login": "تسجيل دخول",
    "Logging In": "تسجيل الدخول",
    "Enter Credentials": "معلومات الدخول مطلوبة",
    "Logged in As": " مسجل كـ",
    "Opportunity": "فرصة",
    "Account": "الحساب",
    "Quote": "عرض الأسعار",
    "Dashboard": "لوحة التحكم",
    "Map": "الخريطة",
    "Calendar": "التقويم",
    "Home": "الصفحة الرئيسية",
    "Logout": "تسجيل الخروج",
    "Create Opportunity": "إنشاء فرصة",
    "Opportunity Name": "اسم الفرصة",
    "Enter Opportunity Name": "الرجاء إدخال اسم الفرصة",
    "Opportunity Contact #": "#جهات اتصال الفرصة",
    "Enter Opportunity Contact #": "الرجاء إدخال رقم الاتصال ",
    "Enter Commercial registration Number": " أدخل رقم السجل التجاري",
    "Chats": "المحادثات",
    "Opportunity Type": "نوع الفرصة",
    "Save": "حفظ",
    "Cancel": "إلغاء",
    "Contact": "#جهة اتصال",
    "Revenue": "الإيرادات",
    "Sub Status": "الحالة الفرعية",
    "City": "المدينة",
    "Service name": "اسم الخدمة",
    "List OP Type": "نوع الفرصة",
    "Auth:Name": "الشخص المفوض",
    "more": "المزيد",
    "Lead": "فرصة",
    "Lost": "فقدان",    
    "Cust:Visits": "زيارات العميل",
    "Cust:Contact": "الإتصال بالعميل",
    "Proposal": "اقتراح",
    "Win": "الربح",
    "Account Name": " اسم الحساب",
    "Account Number": "رقم الحساب",
    "Account Class": "فئة الحساب",
    "ID Type": "نوع الهوية",
    "ID No": "رقم الهوية",
    "Status": "الحالة",
    "Customer Type": "نوع العميل",
    "Customer Sub-Type": "نوع العميل الفرعي",
    "Assigned To": " مخصص لـ",
    "Comment": "التعليق",
    "QuoteOPName": "اسم الفرصة",
    "Details": "التفاصيل",
    "Notes": "الملاحظات",
    "Attachments": "المرفقات",
    "Products": "المنتجات",
    "Activity": "النشاط",
    "Activitys": "الأنشطة",
    "Name": "اسم الفرصة",
    "PName": "اسم المنتج",
    "Campaign": "الحملة التسويقية",
    "Type": "نوع الفرصة",
    "PType": "نوع المنتج",
    "Assigned": "مخصص",
    "Preferred time to contact": "الوقت المفضل للاتصال",
    "Created By": "تم الإنشاء بواسطة",
    "Date": "التاريخ",
    "Auto Quote": "عرض أسعار تلقائي",
    "Rate Plan": "الباقة التسعيرية",
    "Quantity": "الكمية",
    "Quote#": "رقم عرض الأسعار",
    "Quote Name": "اسم عرض الأسعار",
    "Contact Number": "رقم الاتصال",
    "Add Product": "إضافة منتج",
    "Create Activity": "إنشاء نشاط",
    "Description": "الوصف",
    "Priority": "الأولوية",
    "Start": "البداية",
    "End": "النهاية",
    "Due": "تاريخ التنفيذ",
    "Done": "مكتمل",
    "Alarm": "إنذار",
    "Commercial Registration Number": "رقم السجل التجاري",
    "Revenue Amount": " الايراد",
    "Type Note here": " أدخل الملاحظات هنا",
    "No Notes to Display": " لاتوجد ملاحظات للعرض",
    "No Attachments to Display": " لاتوجد مرفقات للعرض",
    "No Products to Display": " لاتوجد منتجات للعرض",
    "oppDetailFetch": "حدث خطأ عند محاولة جلب الفرص",
    "No Quotes to Display": " لاتوجد عروض اسعار للعرض",
    "No Activities to Display": " لا توجد أنشطة للعرض",
    "Looking for online users": " بحث عن المستخدمين المتصلين ",
    "Type Description here": " أدخل الوصف هنا",
    "Enter Start Date": " تاريخ البداية",
    "Enter Due date": "تاريخ البداية",
    "Enter End date": "تاريخ النهاية",
    "Upgrade": "ترقية",
    "New Sale": "مبيعات جديدة",
    "Contact customer": "الاتصال بالعميل",
    "Customer Visit": "زياره العميل",
    "Lead Enrichment": "معلومات إضافية عن الفرصة",
    "Early afternoon": "في أوائل الظهيرة",
    "Early morning": "في الصباح الباكر",
    "Evening": "المساء",
    "Late afternoon": "في أواخر الظهيرة",
    "Mid-morning": "في منتصف الظهيرة",
    "General": "عام",
    "Important": "مهم",
    "Expired": "منتهي الصلاحية",
    "Success": "نجاح",
    "Failed": "فشل",
    "Data": "بيانات",
    "Landline": "ثابتة",
    "Mobile": "محمول",
    "Other": "أخرى",
    "Meeting": "موعد",
    "Call": "مكالمة",
    "1-ASAP": "بأسرع وقت ممكن",
    "2-High": "مرتفع",
    "3-Medium": "متوسط",
    "4-Low": "منخفض",
    "Call back": "رد الاتصال",
    "No Answer 1": "لا يرد 1",
    "No Answer 2": "لا يرد 2",
    "Set Appt": "تحديد موعد",
    "Confirmed Appt": "الموعد المؤكد",
    "Contact Information": "معلومات جهة الاتصال",
    "Customer Portfolio": "ملف العميل",
    "Better offers from competitor": "عرض أفضل من المنافس",
    "Bill experience issue": "مشاكل في الفوترة",
    "Customer experience issue": "خدمة عملاء غير جيدة",
    "He does not know the company": "لا يعمل في الشركة",
    "He has product with competitor": "لديه الخدمة من المنافس",
    "Has Same Product from Consumer": "لديه خدمة مماثلة من STCالأفراد",
    "Line disconnected": "الرقم مفصول",
    "Low Coverage/Tech specs": "تغطية/مواصفات تقنية غير مناسبة",
    "No Answer After Max attempt": "لايرد بعد الحد الأقصى",
    "No Need for service offered": "لا يرغب بالخدمة",
    "other": "غير ذلك",
    "Product offer is too expensive": "كلفة الخدمة عالية",
    "Wrong No": "كل الأرقام غير صحيحة",
    "In Progress": "قيد التنفيذ",
    "Not Started": "لم يبدأ",
    "Unscheduled": "غير مجدول",
    "logOut_Msg": " متأكد من تسجيل الخروج",
    "enter_credentials": " الرجاء إدخال معلومات الدخول",
    "Contact Name": " اسم جهة الاتصال",
    "Customer Details": "تفاصيل العميل",
    "Accepted": "مقبول",
    "Account Contact": "جهة اتصال الحساب",
    "id_pswd_combination_error": " اسم المستخدم او كلمة المرور غير صحيحة",
    "attchmentDelete_confirm": " متأكد من حذف المرفق",
    "activityDelete_confirm": " متأكد من حذف النشاط",
    "productDelete_confirm": " متأكد من حذف المنتج",
    "activityCreate_Failed": "إنشاء النشاط فشل",
    "commentsType": "اكتب تعليقات هنا",
    "endofList": "نهاية القائمة",
    "Loading Opportunities": " تحميل الفرص",
    "businessCardUploaded": " تم الرفع بنجاح",
    "updateOppconfirm": " هل أنت متأكد من التحديث",
    "updatedOpp": " تم تحديث الفرصة",
    "enterOppName": " الرجاء إدخال اسم الفرصة",
    "enterContact": "الرجاء إدخال رقم التواصل",
    "allProgressLostConfirm": " جميع التغيرات التي قمت بها ستفقد , متأكد من الإلغاء",
    "Search": "بحث",
    "OK": "موافق",
    "Yes": "نعم",
    "No": "لا",
    "enterNoteType": "الرجاء إدخال نوع الملاحظة ",
    "addedNote": "تمت إضافة الملاحظة ",
    "Refresh": "تحديث ",
    "Send": "أرسل ",
    "Chat with": " المحادثة مع ",
    "Upload": "رفع",
    "viewonlyMode": " الملف المختار للعرض فقط أنقر على أيقونة المرفقات للإطلاع على الملفات المرفقة",
    "attachmentUploaded": "تم رفع المرفقات بنجاح",
    "Uploading Attachment": " رفع المرفقات",
    "Opportunities Per Sub-status": " فرص حسب الحالة الفرعية",
    "High Priority": " عالي الأهمية",
    "Top 3 Products": " أفضل 3 منتجات",
    "Top 5 Opportunities": "  أفضل 5 فرص بناء على الإشتراك الشهري",
    "No subordinates to display": " لا يوجد فريق للعرض",
    "No substatus to display": " لا توجد حالة فرعية للعرض",
    "No revenue details to display": " لا توجد معلومات عن الإيراد",
    "No priority details to display": " لا توجد معلومات عن الأهمية",
    "No products to display": " لا توجد منتجات للعرض",
    "No opportunities to display": "لا يوجد فرص للعرض",
    "Add Note": " أضف ملاحظة",
    "Edit Note": " تعديل الملاحظة",
    "User": "مستخدم",
    "myViewList": " شاشتي",
    "My View":"شاشتي",
    "allView": "العرض الكلي",
    "Team View":"العرض الكلي",
    "No accounts to display": " لا توجد حسابات للعرض",
    "Select Product Type": "نوع الخدمة",
    "Search Product": " بحث عن منتج",
    "Select Rate Plan": "أختر الباقة التسعيرية",
    "Enter Quantity": " أدخل العدد",
    "enterProdType": "الرجاء إختيار نوع المنتج",
    "enterProdName": "الرجاء إختيار اسم المنتج",
    "enterProdRatePlan": "الرجاء اختيار الباقه التسعيرية",
    "enterProdQuantity": " الرجاء ادخال الكمية",
    "productCreated": "تمت اضافه المنتج",
    "productUpdated": " تم تحديث المنتج",
    "enterPriority": "الرجاء إختيار الاهمية",
    "enterActivityType": " الرجاء إدخال نوع النشاط",
    "enterStatus": "الرجاء إدخال الحالة",
    "activityAdded": "تم إضافة النشاط",
    "activityUpdated": "تم تحديث النشاط",
    "setLocationConfirm": "أختر الموقع",
    "deleteNoteConfirm": "هل أنت متأكد من حذف الملاحظة",
    "Prospect Customer Name": "اسم العميل المتوقع",
    "oppoUpdateConfirm": " هل أنت متأكد من التحديث",
    "oppoUpdated": " تم تحديث الفرصة",
    "productDeleted": "تم حذف المنتج",
    "Opportunity Number": "رقم الفرصة",
    "Comments": "ملاحظات",
    "fileName": "نوع الملف",
    "File Type": "أدخل اسم الملف",
    "Search for products": "بحث عن منتج",
    "idNo": "أدخل رقم الهوية",
    "noaccount": "الحساب غير موجود",
    "myviewloading": "تحميل فرصي",
    "Op.Number": "رقم الفرصة",
    "couFetchFailed": "لايمكن جلب الفرص حاليا",
    "Search for a City": "إبحث عن مدينة",
    "ocrRecog": "لم يتم التعرف على جهة الإتصال المدخلة",
    "Search for Assignee": "بحث ",
    "noRatePlan": "الباقة التسعيرية المختارة غير موجودة",
    "Select Connection Type": "إختر نوع الاتصال ",
    "Prepaid": "مسبق الدفع",
    "Postpaid": "مفوتر",
    "GSM Number": "رقم الجوال",
    "Search GSM Number": "بحث ",
    "Close": "إغلاق",
    "servFail": "فشل في الخدمة",
    "noteUpdate": "تم تحديث الملاحظات بنجاح",
    "attachDelete": "تم حذف المرفق بنجاح",
    "Type your message": "أكتب رسالتك",
    "You": "أنت",
    "Connection Type": "نوع الإتصال",
    "Edit Product": "التعديل على المنتج",
    "is Online": "المستخدم متصل",
    "Discount approval": "موافقة على التخفيض",
    "pleaseEnter": "الرجاء إدخال",
    "activityType": "نوع النشاط",
    "netCheck": "تأكد من اتصالك بالانترنت",
    "internErr": "فشل في النظام الرجاء المحاولة مره أخرى",
    "userCountNull": "لا توجد فرص للمستخدم المحدد",
    "tvLoad": "جاري جلب معلومات فريقي ",
    "noOpp": "لا توجد فرص للعرض",
    "connType": "الرجاء اختيار نوع الخدمة مفوترة مسبقة الدفع",
    "prodDeleteFailed": "حدث خطاء أثناء حذف المنتج الرجاء المحاولة مرة أخرى",
    "quoNoDelete": "لا يمكن حذف المنتج",
    "fiftyRecords": "تم التحديث بنجاح لأول 50 فرصة",
    "firstTen": "تم التحديث بنجاح لأول 50 فرص",
    "oppDetNoFound": "معلومات الفرصة غير موجودة",
    "usFetch": "حدث خطأ أثناء جلب معلومات الدخول الرجاء المحاولة مرة أخرى",
    "mapFetch": "لا يمكن جلب الفرص حاليا",
    "noConFound": "لم يتم إضافة جهة اتصال",
    "quoNoEdit": "لا يمكن التعديل على المنتج",
    "prodCrFail": "لا يمكن إضافة المنتج الرجاء المحاولة مرة أخرى",
    "proUpFail": "حدث خطأ أثناء تحديث المنتجات الرجاء المحاولة مرة أخرى",
    "proDataLoa": "لا يمكن جلب معلومات المنتج حاليا الرجاء المحاولة مرة أخرى",
    "ratePlanLoad": "حدث خطأ في تحميل معلومات الباقة التسعيرية الرجاء المحاولة مرة أخرى",
    "noProds": "لا توجد منتجات للعرض",
    "quoMobCre": "تم إنشاء عرض السعرلخدمات الجوال بنجاح",
    "alreQuoted": "جميع المنتجات تم إصدار لها عروض أسعار مسبقا",
    "quoFailed": "حدث خطأ أثناء عرض سعر تلقائي الرجاء المحاولة مرة أخرى",
    "quoCreate": "تم إنشاء عرض السعر بنجاح",
    "quoLoaded": "لا يمكن جلب معلومات عرض السعر الرجاء المحاولة مرة أخرى",
    "actUpFail": "لا يمكن تحديث النشاط الرجاء المحاولة مرة أخرى",
    "actDelFailed": "حدث خطأ أثناء حذف النشاط الرجاء المحاولة مرة أخرى",
    "entFileName": "الرجاء إدخال اسم الملف المرفق ",
    "attachDownload": "تم التحميل بنجاح",
    "attaDeleFail": "حدث خطأ أثناء حذف المرفق الرجاء المحاولة مرة أخرى",
    "bCardUp": "حدث خطأ أثناء رفع كرت العمل الرجاء المحاولة مرة أخرى",
    "oppUpFail": "حدث خطأ أثناء تحديث الفرصة الرجاء المحاولة مرة أخرى",
    "nooAccCFou": "لايوجد حساب مرتبط مع جهة الاتصال المدخلة الرجاء التأكد من الحساب والمحاولة مرة أخرى",
    "locMapUp": "تم تحديث الموقع بنجاح",
    "notCreaFail": "حدث خطأ أثناء إنشاء الملاحظة الرجاء المحاولة مرة أخرى",
    "notUpFail": "حدث خطأ أثناء تحديث الملاحظة الرجاء المحاولة مرة أخرى",
    "notDelFail": "حدث خطأ أثناء حذف الملاحظة الرجاء المحاولة مرة أخرى",
    "selProType": "الرجاء اختيار نوع المنتج",
    "unSupp": "صيغة الملف غير مدعومة",
    "noOppCou": "لا توجد فرص للعرض",
    "deleted": "تم الحذف",
    "note": "ملاحظات",
    "successfully": "بنجاح", 
    "actiPlug": "الأنشطة",
    "oppo": "الفرصة",
    "pro": "المنتج",
    "wiLoNoSet": "لا يمكن تحديد الموقع للفرص في حالة فقدان الربح",
    "enterAccName": "الرجاء إدخال الحساب",
    "Order Placed": "تم وضع الأمر",
    "Search for a GSM Number": "بحث",
    "locCaptured": "تم تحديد موقع العميل هل ترغب في تحديثه؟",
    "Edit Activity": "تحديث الأنشطة",
    "QuoteMob": "عرض سعر ( جوال)",
    "Select Image From Gallery": "إختر صورة من الإستوديو",
    "Select File From Storage": "إختر ملف من الملفات",
    "Please Select an option to Continue": "الرجاء إختيار خيار للمتابعة",
    "creSuccess": "تم الإنشاء بنجاح",
    "teamViewList": "شاشة فريقي",
    "Review": "مراجعة",
    "proFou": "المنتجات",
    "Acknowledged": "تم الإعلام به",
    "Port-in Activated": "تم تفعيل النقل من مشغل آخر",
    "Active": "نشط",
    "Alerted": "تم تبديله",
    "New": "جديد",
    "Planned": "مخطط",
    "Approved": "معتمد",
    "Auto Responded": "استجابة تلقائية",
    "Declined": "مرفوض",
    "Delivered": "تم التوصيل",
    "Delivery Failed": "فشل التسليم",
    "Submitted": "تم التقديم",
    "Dispatch Failed": "فشل الإرسال",
    "Dispatched": "تم إرساله",
    "Synchronized": "تمت المزامنة",
    "Not Acknowledged": "لم يتم الإعلام به",
    "Auto-Created": "يتم إنشاؤه تلقائيًا",
    "On Hold": "قيد الإنتظار",
    "Queued": "مقيد في قائمة الإنتظار",
    "Auto-Updated": "يتم تحديثه تلقائيًا",
    "Booked": "تم التسجيل",
    "Rescheduled - Customer": "عميل - معاد جدولته",
    "Requested": "مطلوب",
    "Rescheduled - Rep": "مندوب - معاد جدولته",
    "Double Booked": "حجز لفردين",
    "Scheduled": "مجدول",
    "To Be Deleted": "جاري حذفه",
    "Sent": "مرسل",
    "Preparing Documents": "إعداد المستندات",
    "Unassigned": "غير مخصص",
    "Quoted": "في عرض الأسعار",
    "Re-rent": "إعادة استئجار",
    "En Route": "في الطريق",
    "Transferred": "محوَّل",
    "Signed": "موقع",
    "Withdrawn": "تم سحبه",
    "Signed and Synchronized": "موقع ومتزامن",
    "LOCKED": "مقفل",
    "Submitted for Approval": "مقدم للإعتماد",
    "Draft": "مسودة",
    "Approval in Process": "جاري الإعتماد",
    "Sanction": "عقوبة",
    "Open": "فتح",
    "Completed": "مكتمل",
    "Invalid": "غير صالح",
    "Confirmed": "مؤكد",
    "Attended": "تم الحضور",
    "Not Attended": "لم يحضر",
    "Initiated": "البدء",
    "Partial": "جزئي",
    "Reject": "رفض",
    "Port - In NPR Request Sent": "تم إرسال طلب النقل NPR",
    "Send RFS Broadcase Message": "إرسال رسالة RFS",
    "Port-In SO Created": "تم إنشاء نقل SO",
    "NPR Acknowlegment Received": "تم تسليم NPR",
    "PortOut Request Rejected": "طلب مرفوض للنقل إلى مشغل آخر",
    "Deactivated": "غير فعال",
    "Charges Info Communicated": "معلومات ربط الشحن",
    "Final Bill Communicated": "ربط الفاتورة الأخيرة",
    "Port - In NPR Request Received": "تم إستقبال طلب النقل NPR",
    "PortOut Request Accepted": "موافقة النقل إلى مشغل آخر",
    "PortOut Request On Hold": "طلب معلق للنقل إلى مشغل آخر",
    "RFS Broadcast Message Received": "تم تسليم رسالة RFS",
    "Activated": "فعال",
    "Deact bk Message Received": "عطل في الرسالة",
    "Deactivate Acknowlegment Sent": "تأكيد فصل الإرسال",
    "PortOut NPR Request Received": "إستلام طلب النقل إلى مشغل آخر",
    "Rejected": "تم رفضه",
    "Pre-Accepted": "NP Hold",
    "Final Bill Not Paid": "لم يتم سداد الفاتورة النهائية",
    "Final Bill Paid": "تم سداد الفاتورة النهائية",
    "Initial Validation Error": "خطأ في المطابقة الأولية",
    "Final Bill Submitted": "تم إرسال الفاتورة النهائية",
    "Payment Monitoring": "مراقبة الدفع",
    "Bill Email Failed": "فشل في إرسال الفاتورة للايميل",
    "Cancelled": "تم الإلغاء",
    "F/Bill Amount not paid": "لم يتم سداد مبلغ الفاتورة النهائي",
    "Wait for Quarantine": "الإنتظار لمنع الخدمة",
    "Disconnection SO Created": "إنشاء أمر فصل الخدمة",
    "Gift Finalized": "تجهيز الهدية",
    "SMS Sent": "تم إرسال الرسالة",
    "Catalog Sent": "تم إرسال الكتالوج",
    "On-Hold": "على الإنتظار",
    "Customer Contacted": "تم الاتصال على العميل",
    "Closed": "مغلق",
    "Upgrade Credit Limit": "ترقية الحد الائتماني",
    "Initial Bill Not Paid": "لم يتم سداد الفاتورة الأولية",
    "Abaan Alahhmer":"ابـان الاحمــر",
    "Ibn Tawalah":"ابن طواله",
    "Abha":"ابها",
    "Abu Arish":"ابو عـريـش",
    "Aburake":"ابوراكه",
    "Ohod Rofidah":"احــد رفيــده",
    "AlAssyah":"الأسيـــاح",
    "Alodhara":"الأضــــارع",
    "Al ahad":"الاحـــد",
    "ArRatawiyah":"الارطاويه .",
    "AlAflaj":"الافــلاج",
    "AlBetra":"البتــراء",
    "Albigadieh":"البجادية",
    "Badai":"البدائــع",
    "Albark":"البرك",
    "AlBotain":"البطــين",
    "Baha":"البـاحــه",
    "Badiah":"البـديعه",
    "Albeda":"البـــدع",
    "Bukayriyah":"البكيريــه",
    "Althogbah":"الثقـــبه",
    "AlThamad":"الثمــــد",
    "Jubail":"الجبيل .",
    "Jahra":"الجــهراء",
    "Aljamsh":"الجمش",
    "AlJomomm":"الجمـوم",
    "AlHareeg":"الحريــق",
    "Al Hasoo":"الحســـو",
    "Alhayot":"الحـــايط",
    "AlHanee":"الحـــــني",
    "AlHaleegah":"الحليقـــه",
    "Hinakiyah":"الحناكيـــة",
    "AlKaserah":"الخاصره .",
    "Alkohber":"الخبر.",
    "Kherma":"الخرمة",
    "Alkotah":"الخطة",
    "AlKharj":"الخــرج",
    "Khraybe":"الخــريبة",
    "Alkhabra":"الخـــــبرا",
    "Khafji":"الخفجي .",
    "AlKhamaseen":"الخماســـــين",
    "AlDhalem":"الد لــم",
    "Addayer Benee":"الداير بني",
    "Aldalemyah":"الدليميــه",
    "Dammam":"الدمـام",
    "AlDawadmi":"الدوادمي .",
    "Addayseah":"الديســـه",
    "Athhebyah":"الذيبية",
    "Rabuah":"الربوعة",
    "Riggae":"الرقعـــي",
    "Arumaihah":"الرميحيـة",
    "Alrooadh":"الروضة",
    "Riyadh":"الريــاض",
    "AlZulfi":"الزلفي .",
    "AsSaerah":"السعيرة",
    "Asser":"الســـر",
    "AsSolayel":"السـليل",
    "AlSoergiah":"السـويـرقية",
    "Safaniya":"السفانية .",
    "Salimi":"السليمى",
    "AlShobaikah":"الشبيكــه",
    "Assoareh":"الشعـــــراء",
    "AShrayee":"الشـرائع",
    "Ashraef":"الشـــرف",
    "Asshagra":"الشـــقره",
    "Shuqairi":"الشــقيري",
    "Ashowehetah":"الشــويحطيـه",
    "AlShagran":"الشقـــران",
    "Chemli":"الشملي",
    "Ashnan":"الشنان",
    "Alsadawi":"الصداوي",
    "Alsoaidara":"الصــويدره",
    "Alsfiri":"الصفيري",
    "AsSaulsalah":"الصلصلة",
    "Taif":"الطائف .",
    "Dhahran":"الظهران .",
    "Alakeer":"العاقــــر",
    "Abdelliya":"العبدليـة",
    "Alobailah":"العبيـــله",
    "Ela":"العـــلا",
    "Aqeer":"العقـــير",
    "Alageg":"العقيق",
    "AlOmok":"العمــــق",
    "AlUyoon":"العيون",
    "AlGhat":"الغاط",
    "Algazia":"الغضيــاء",
    "Zima":"الـزيمـه",
    "Albeear":"الـــبئر",
    "Rass":"الـــرس",
    "Alfareash":"الفـريـش",
    "AlFawreh":"الفوارة",
    "Qahzh":"القحــــزه",
    "Qahma":"القحمة",
    "Algasab":"القصب .",
    "Qatif":"القطـــيف",
    "Qurayyat":"القـريـات",
    "AlGorain":"القـريـن",
    "ALGorra":"القــــري",
    "Akulaibh":"القليبه",
    "Qunfudah":"القنـــفذه",
    "Algawrah":"القوارة",
    "AlGoweayah":"القويعيه .",
    "Qaisumah":"القيصومـــه",
    "AlKhamel":"الكـامــل",
    "Alkhvh":"الكهفـة",
    "Alfaqih":"اللفقـــية",
    "Alqaut":"اللقـائـــط",
    "Laith":"الليــث",
    "Almajardeh":"المجـارده",
    "AlMajmaah":"المجمعه .",
    "Provinces":"المحافظات",
    "AlMahilani":"المحيـلاني",
    "Makhwah":"المخــواه",
    "Medina":"المدينة المنورة",
    "Almedinhalmnorh":"المدينةالمنورة",
    "AlMotheneb":"المذنــب",
    "Almarmutah":"المرموثـه",
    "Muzahimiyah":"المزاحميه .",
    "Almsegid":"المسيجيــد",
    "Almateewa":"المطيـــوي",
    "Almoadam":"المعظـــم",
    "Mubarraz":"المــــبرز",
    "Almendq":"المـــندق",
    "AlMolaylh":"المليليح",
    "Southern Region":"المنطقة الجنوبية",
    "Eastern Region":"المنطقة الشرقية",
    "Northern Region":"المنطقة الشمالية",
    "Western Region":"المنطقة الغربية",
    "Central Region":"المنطقة الوسطى",
    "Almahed":"المهـــد",
    "Moelh":"المويلــح",
    "AlMueh":"المويه .",
    "Alnabhaneyah":"النبـهانيه",
    "Alnoairryah":"النعيريه .",
    "AlNogairah":"النقــيره",
    "Namas":"النمــاص",
    "Hofuf":"الهــــفوف",
    "Alwastah":"الواســــطه",
    "Alwajeh":"الوجــــه",
    "Alwadeeah":"الوديعــــة",
    "Um Hazem":"ام حــزم",
    "Umqleb":"ام قليب",
    "Umlooj":"امــــلج",
    "Balhareth":"بالحارث",
    "Bahra":"بحرة",
    "Badr AL janoob":"بــدر الجــنوب",
    "Buraydah":"بــــريـده",
    "Badr":"بـــــدر",
    "Baniamro":"بـني عمـرو",
    "Bugaa":"بقعــــاء",
    "Baqaiq":"بقيق .",
    "Beljarshy":"بلجــرشـي",
    "Bani Hassan":"بني حسن",
    "Bani Malik":"بني مالك .",
    "Bish":"بيش",
    "Bisha":"بيشــــه",
    "Tabuk":"تبـــوك",
    "Tatleet":"تثليــث",
    "Torobah":"تربــــــة",
    "Teraat Thageef":"ترعة ثقيف",
    "Tanumah":"تنـــومـه",
    "Taima":"تيمــــاء",
    "Thermda":"ثرمـداء",
    "Thadej":"ثــادج",
    "Thadeg":"ثــادق",
    "Therbe":"ثـــــرب",
    "Jobbah":"جبه",
    "Jeddah":"جــــــدة",
    "Jizan":"جـــــيزان",
    "Habbona":"حبـــونـا",
    "Hareemla":"حـريمــلا ء",
    "Hail":"حــائل",
    "Halet Ammaer":"حــالة عمــار",
    "Harad":"حـــرض",
    "Hakel":"حـــقل",
    "Hafr Albateen":"حفر الباطن .",
    "Halban":"حلبـان",
    "Hutah Bani Tamim":"حوطه بني تميم",
    "Khyber":"خــيبر",
    "Khaliss":"Khaliss",
    "Khamis Moshaet":"خميس  مشيط",
    "Doknah":"دخــنه",
    "Dos":"دوس",
    "Dumet Aljandel":"دومــه الجـــندل",
    "Dhahban":"ذهبان",
    "Ras Tanura":"رأس تنوره",
    "Rabigh":"رابــغ",
    "Rejal almaea":"رجــال المـع",
    "Raheemaa":"رحيمة .",
    "Rogabah":"رغبــة",
    "Refayea Alloheeb":"رفـائع اللهيـب",
    "Rafayea Alhojra":"رفـائـــع الحجـرة",
    "Rafha":"رفــــحا",
    "Ramah":"رماح .",
    "Ranyah":"رنيه .",
    "Rawadat Guerdan":"روضـة قـردان",
    "Riyad Alkhabra":"رياض  الخــبرا",
    "Zaloom":"زلــــوم",
    "Sager":"ساجر.",
    "Samoda":"سامودا",
    "Sarat Abedah":"سراة عبيده",
    "Sudair":"ســدير",
    "Salwa":"ســــلوي",
    "Sayhat":"ســيهات",
    "Sakaka":"سكاكا",
    "Sharma":"شــرمـا",
    "Sharorah":"شــروره",
    "Shari":"شـــري",
    "Shwaeg":"شـــواق",
    "Shaqra":"شقراء.",
    "Showaih":"شويه .",
    "Sabya":"صبيــــا",
    "Samtah":"صـامطه",
    "Safwa":"صــــفوي",
    "Sawyer":"صـــوير",
    "Siyah Almolhem":"صيـاح الملحــم",
    "Duba":"ضبـــاء",
    "Dharma":"ضرما .",
    "Dargaot":"ضــرغـط",
    "Daryah":"ضــــريه",
    "Damaed":"ضـــمد",
    "Doleea Rasheed":"ضليـع رشـيد",
    "Tabarjal":"طــبرجـل",
    "Tarif":"طـــريف",
    "Tabah":"طــــابـه",
    "Dhlom":"ظـــــــلم",
    "Dahran Aljanwob":"ظــهران الجـنوب",
    "Asfan":"عسفان",
    "Asir":"عسير",
    "Arar":"عــرعــر",
    "Afif":"عفيف .",
    "Oqlat Assogoor":"عقلـه الصقـور",
    "Agate":"عقيق",
    "Ummq":"عمق",
    "Unaiyza":"عنيزه .",
    "Ain Dar":"عين دار",
    "Ghazaal":"غزايل",
    "Gamed Azzenad":"غــامد الزنـاد",
    "Fajer":"فجـــــر",
    "Frasan":"فـراسـان",
    "Viva":"فيفــــا",
    "Kobbah":"قبــه",
    "Goraa Alhasa":"قرى الاحساء",
    "Garee Alhejaz":"قرى الحجاز",
    "Goraa Hail":"قرى حائل",
    "Gareeth":"قــريطه",
    "Garyah":"قــــريه",
    "Qarah":"قـــــاره",
    "Kalwa":"قــــلوي",
    "Gena  walbaher":"قناءوالبحر",
    "Geeya":"قياء",
    "Kiel":"قيـال",
    "Luffah":"لفــــــه",
    "Jawf province":"محافظة الجوف",
    "Northern Province":"محافظة الحدود الشمالية",
    "Riyadh province":"محافظة الرياض",
    "Eastern Province":"محافظة الشرقية",
    "Qassim province":"محافظة القصيم",
    "Tabuk province":"محافظة تبوك",
    "Hail province":"محافظة حائل",
    "Mahaúl":"محــائـل",
    "King Khalid Military City":"مدينة الملك خالد العسكرية",
    "Marat":"مرات .",
    "Mastoura":"مستورة",
    "Madraj":"مــدرج",
    "Medrekah":"مــدركـه",
    "Moukq":"مـوقــق",
    "Mguena":"مقـــــنا",
    "Mecca":"مكه المكرمه",
    "Molhem":"ملهــم",
    "Ngern":"نجرن",
    "Najran":"نجـــران",
    "Nataa":"نــــطاع",
    "Hudaib":"هــديـب",
    "Harroob":"هـــروب",
    "Wadi Aldawaser":"وادي الدواسر",
    "Wadi Alfrea":"وادي الفــرع",
    "Yadmah":"يــــدمـه",
    "Yalamlam":"يلملم",
    "Yanbu":"ينـــبع",
    "Sent Proposal":"تم إرسال اقتراح",
    "Sent Quotation":"تم إرسال عرض سعر",
    "Waiting Feedback":"بإنتظار الإفادة",
    "Contract Signed":"تم توقيع العقد",
    "quoteMobile":"هل أنت متأكد من تقديم  عرض أسعار؟",
    "autoQuote":"هل أنت متأكد من تقديم عرض أسعار تلقائيا؟",
    "opTypeSave":"يجب حفظ تغيير نوع الفرصة لإضافة منتجات",
    "accountTypSave":"يجب حفظ الحساب الجديد المحدد لإضافة منتجات",
    "gsmConnType":"الرجاء إدخال نوع الاتصال",
    "gsmNumber":"الرجاء إدخال رقم الجوال",
    "validQty":"الرجاء إدخال كمية صحيحة",
    "pdctDataLoad":"لا يمكن تحميل بيانات المنتجات",
    "noAccount":"لا يوجد حساب مرتبط بهذه الفرصة",
    "pdctType":"الرجاء إدخال نوع المنتج",
    "min5charctrs":"الرجاء إدخال خمسة أحرف على الأقل للبحث",
    "actvtyDataLoad":"لا يمكن تحميل بيانات الأنشطة",
    "aDateGrtrThan":"الرجاء إدخال تاريخ أكبر من",
    "attchmntDataLoad":"لا يمكن تحميل المرفقات",
    "postingProgress":"الرصد قيد التنفيذ",
    "postOpptyOnceCompltd":"يمكنك رصد هذه الفرصة حال اكتمال العملية الحالية",
    "optyDetailsFtchFald":"فشل الحصول على تفاصيل الفرصة",
    "noDeleteOppty":"لا يمكن حذف الفرصة",
    "enableLocation":"الرجاء تفعيل خدمة تحديد المواقع لإضافة الموقع",
    "refreshLocationEnable":"الرجاء تحديث الصفحة بعد تفعيل خدمة تحديد المواقع",
    "opptySavedSuccess":"تم حفظ الفرصة بنجاح",
    "enterCity":"الرجاء إدخال المدينة",
    "noMoreAssginee":"لم يتم العثور على اسم مستخدم في هذا البحث",
    "otpFailed":"فشل في مطابقة كلمة المرور المؤقتة. الرجاء المحاولة مرة أخرى",
    "noEventsFound":"لم يتم العثور على أحداث للفرصة رقم",
    "eventsFound":"تم العثور على حدث/أحداث للفرصة رقم",
    "authFailed":" خطأ في التفويض / الوصول API",
    "wrongOtpMsg":"تم إدخال كلمة المرور المؤقتة خاطئة، الرجاء المحاولة مرة أخرى.",
    "personalChatInvite":"أرسل إليك دعوة لمحادثة شخصية، هل ترغب بالإستمرار؟ ",
    "deleteConfirm":"هل أنت متأكد من الحذف؟",
    "unsavedChangesConfirm":"سيتم فقدان التغييرات التي لم يتم حفظها، هل ترغب بالإلغاء؟",
    "noAssigneesForSearch":"لا يوجد مخصص لهذا البحث",
    "cannotRefreshOpp":"لا يمكن تحديث الفرصة",
    "noAssigneesFound":"لم يتم العثور على مخصص",
    "Submitting":"جاري التنفيذ",
    "Submit":"تنفيذ",
    "One Time Password":"كلمة المرور المؤقتة",
    "Please enter the OTP recieved in your phone":"الرجاء إدخال كلمة المرور المؤقتة المرسلة لجوالك",
    "OTP Verification":"التحقق من كلمة المرور المؤقتة",
    "Version":"إصدار",
    "Quotes":"عروض أسعاري",
    "Accounts":"حسابات",
    "Opportunities":"فرصي",
    "noGSM":"لا",
    "noQuotesFound":"لم يتم العثور على عرض الأسعار",
    "noAccountsFound":"لم يتم العثور على حسابات",
    "err":"خطأ",
    "Search for Account" :"البحث عن حساب",
    "Load More":"تحميل أكثر",
    "No Online Users Found": "لم يتم العثور على مستخدمين متصلين",
    "Offline":"غير متصل",
    "Offline*":"غير متصل*",
    "serviceName":"اسم الخدمة",
    "authorizedName":"شخص مخول",
    "notPrivilegedUser" : "لا توجد لديك الصلاحيات المطلوبة للدخول",
    "vm" : "عرض المزيد",
    "noDesc" : "الوصف غير متاح",
    "setNewLoc" : " تحديد موقع جديد",
    "updateCurrPositn" : "تستطيع تحديث موقعك الحالي من موقع العميل",
    "newMessage" : " لديك رسالة جديدة من",
    "Fetching Details Of Selected Activity" : " يتم إحضار التفاصيل من النشاط المختار",
    "Event Details" : "تفاصيل الحدث",
    "evntDetails" : "تفاصيل الحدث",
    "youHaveA" : "لديك",
    "in" : "في",
    "minutes" : "دقائق",
    "to" : "إلى",
    "evnTime" : "وقت الحدث",
    "desc" : "الوصف",
    "noPrivilegeQuote" : "لا يمكنك عمل عرض سعر تلقائي ( جوال) لعدم وجود الصلاحية",
    "noauthdeleteattach" : "لا يمكنك حذف المرفقات لعدم وجود الصلاحيات اللازمة",
    "noResServer": "لا يوجد استجابة من الخادم",
    "noEventData" : "لم يتم العثور على تفاصيل الحدث",
    "plsTryAfter" : "الرجاء المحاولة بعد",
    "morAttmptsLeft" : "لديك محاولات إضافية",
    "Token Verification Failed": "فشل التحقق من الرمز",
    "Interval0to60":" الرجاء نحديد الفترة من 0 الى 60",
    "settingsSaved":"تم حفظ الإعدادات بنجاح.التغيرات التي قمت بها ستنعكس عند تسجيل الدخول مره اخرى",
    "SetIntervalRequest":"الرجاء تحديد الفترة",
    "saveSettingConfirm":" هل تريد حفظ الإعدادات",
    "Syncing Events...Please wait":"الرجاء الإنتظار جاري إحضار الأحداث",
    "Welcome":"مرحبا",
    "Settings":" الإعدادات",
    "sessionExpired":" إنتهى الوقت المحدد للدخول الرجاء الدخول مرة أخرى",
    "Notify Events Before (in minutes)":" (تذكير بالأحداث قبل ( بالدقيقة",
    "loggingOut":" جاري تسجيل الخروج الرجاء الانتظار",
    "Checking For Updates..":"البحث عن التحديثات..",
    "CustomerVisits": "زيارات العميل",
    "CustomerContact": "الإتصال بالعميل",
    "ProductsName": "المنتجات",
    "chartdetails":"معلومات اضافيه",
    "Branch Visit":"زياره فرع",
    "amount":"الكمية",
    "prdctName":"إسم المنتج",
    "ratePlan": "الباقة التسعيرية",
    "subStatus": "الحالة الفرعية",
    "opptyName": "اسم الفرصة",
    "opportys":"فرصي",
    "Activity Status":"حالة النشاط",
    "Update":"تحديث",
    "offlineActivitySuccess": "تم انشاء النشاط بنجاح",
    "offlineActivityEditSuccess":"تم التعديل على النشاط بنجاح",
    "offlineActivityDelete":"تم حذف النشاط بنجاح",
    "offlineNoteCreateSuccess":"تم انشاء الملاحظه  بنجاح",
    "offlineNoteEditSuccess":"تم التعديل على الملاحظه بنجاح",
    "offlineNoteDelete":"تم حذف الملاحظه  بنجاح",
    "offlineOpptyUpdate":"تم تحديث الفرصة بنجاح",
    "featureNotAvblInOffline" :"يتطلب وجود اتصال انترنت لتفعيل هذة الخاصية",
    "noAccountExistOppty": "لايمكن انشاء الفرصة لعدم ارتباطها بحساب",
    "postAllOpptys" :"هل انت متاكد من رغبتك بتقديم جميع الفرص؟",
    "offlineOpptysEditInOnline":"انت الان متصل يمكنك التعديل او ارسال الفرص",
    "BULK POST":"تقديم جماعي ",
    "Commercial Reg No":"رقم السجل التجاري",
    "reviewNewTab":"جديد",
    "otpLimitReached":"تعديت المحاولات المسموحه لك يرجى المحاولة لاحقا",
    "appUpgradeFailed":"لايمكن ترقيه التطبيق الى الاصدار الجديد الرجاء المحاوله مره اخرى",
    "noCityData":"معلومات المدينة غير موجوده",
    "prdctsNotFound":"معلومات المنتج غير موجوده",
    "noChatOff":"المحادثة غير متاحه في حالة الدخول دون الاتصال بالانترنت",
    "onEnableOff":"لتمكن من الدخول دون الاتصال بالانترنت يتوجب عليك تسجيل الدخول متصل بالانترنت لمره واحد على الاقل",
    "otpErr":"يوجد مشكله في الخادم الداعم لرسائل التاكيد عن طريق الجوال",
    "offOppsSynsSucc":"تم بنجاح  مزامنة جميع الفرص المدخله في وضع الاتصال بدون الانترنت ",
    "cityDumpedSucc":"تم  بنجاح نقل معلومات المدينة",
    "cityDumpedFailed":"فشل نقل معلومات المدينة",
    "proDumpedSucc":"تم بنجاح نقل معلومات المنتج",
    "proDumpedFailed":"فشل نقل معلومات المنتج",
    "oppDumpedFailed":"فشل في نقل الفرص",
    "actiStatusDumpedSucc":"تم بنجاح نفل المعلومات عن حالة النشاط",
    "actiStatusDumpedFailed":"فشل في نقل المعلومات عن حالة النشاط",
    "noOppToDump":"لا يوجد فرص ليتم نقلها",
    "noViewOff":"العرض ليس متاح في حالة عدم الاتصال  بالانترنت",
    "oppDumpedSucc":"تم نقل الفرص بنجاح",
    "Syncing in Progress....":"المزامنة قيد التنفيذ",
    "updatingOpp":"يتم تحديث الفرص",
    "outOf":"من",
    "Dump Data for Offline":"نقل المعلومات في حالة عدم الاتصال بالانترنت",
    "Inbox Period (in days)":"أدخل عدد الأيام الماضية التي ترغب بعرض الفرص الواردة خلالها",
    "inbCantEmpty":"عدد الأيام لا يمكن أن يكون فارغ",
    "validInbPeriod":"ادخل عدد الأيام بشكل صحيح",
    "settSavSucess":"تم حفظ التغييرات بنجاح",
    "settSaveFaild":"لم يتم حفظ التغييرات",
    "Inbox":"صندوق الوارد",
    "Location Tracker":"تتبع المواقع",
    "noChangesFound" : "لا يوجد تغييرات",
    "Search User" : "ابحث عن مستخدم",
    "Preferences" : "الأفضليات",
    "Select All" : "اختيار الكل",
    "refreshSuccess" : "تم التحديث بنجاح",
    "refreshPlsWait" : "جاري التحديث. يرجى الانتظار..",
    "locTrackNotInOffline" : "لا يمكن تتبع الموقع في حال الدخول دون الاتصالات بالإنترنت",
    "Created Date" : "تاريخ الإنشاء",
    "Search Opportunity Name" : "البحث باسم الفرصة",
    "Update Photo" : "تم تحديث الصورة",
    "Profile Photo" : "صورة العرض",
    "Camera" : "الكاميرا",
    "Gallery" : "الاستديو",
    "Remove Photo" : "حذف الصورة",
    "PROCEED" : "تقدم",
    "USE PHOTO" : "استخدام الصورة",
    "photoUpload" : "يتم تحميل الصورة يرجى الانتظار",
    "photoRemove" : "يتم حذف الصورة يرجى الانتظار",
    "lSeen" : "آخر ظهور",
    "cWith": "الدردشة مع ",
    "Maps" : "الخرائط",
    "Dismiss" : "استبعاد",
    "editHomeScreen" : "تعديل الشاشة الرئيسية",
    "photoUpdated" : "تم تحديث صورة الملف الشخصي",
    "photoRemoved" : "تم حذف صورة الملف الشخصي",
    "photoRmvFailed" : "فشل حذف صورة الملف الشخصي",
    "photoUpdateFailed" : "فشل تحديث صورة الملف الشخصي",
    "selectPhoto" : "يرجى اختيار الصورة",
    "photoCaptureFailed" : "فشل في التقاط الصورة",
    "photoSelectionFailed" : "Photo Selection Failed"
}
