{
    "prepare_queue": {
        "installed": [],
        "uninstalled": []
    },
    "config_munge": {
        "files": {
            "config.xml": {
                "parents": {
                    "/*": [
                        {
                            "xml": "<feature name=\"Camera\"><param name=\"browser-package\" value=\"Camera\" /></feature>",
                            "count": 1
                        },
                        {
                            "xml": "<feature name=\"Device\"><param name=\"browser-package\" value=\"Device\" /></feature>",
                            "count": 1
                        }
                    ]
                }
            }
        }
    },
    "installed_plugins": {
        "call-number": {
            "PACKAGE_NAME": "com.crm.stcmobile"
        },
        "cordova-android-support-v4": {
            "PACKAGE_NAME": "com.crm.stcmobile"
        },
        "cordova-disable-http-cache": {
            "PACKAGE_NAME": "com.crm.stcmobile"
        },
        "cordova-plugin-app-event": {
            "PACKAGE_NAME": "com.crm.stcmobile"
        },
        "cordova-plugin-appversion": {
            "PACKAGE_NAME": "com.crm.stcmobile"
        },
        "cordova-plugin-base64-joewsh": {
            "PACKAGE_NAME": "com.crm.stcmobile"
        },
        "cordova-plugin-compat": {
            "PACKAGE_NAME": "com.crm.stcmobile"
        },
        "cordova-plugin-camera": {
            "PACKAGE_NAME": "com.crm.stcmobile"
        },
        "cordova-plugin-device": {
            "PACKAGE_NAME": "com.crm.stcmobile"
        },
        "cordova-plugin-file": {
            "PACKAGE_NAME": "com.crm.stcmobile"
        },
        "cordova-plugin-file-opener2": {
            "PACKAGE_NAME": "com.crm.stcmobile"
        },
        "cordova-plugin-file-transfer": {
            "PACKAGE_NAME": "com.crm.stcmobile"
        },
        "cordova-plugin-geolocation": {
            "PACKAGE_NAME": "com.crm.stcmobile"
        },
        "cordova-plugin-inappbrowser": {
            "PACKAGE_NAME": "com.crm.stcmobile"
        },
        "cordova-plugin-network-information": {
            "PACKAGE_NAME": "com.crm.stcmobile"
        },
        "cordova-plugin-splashscreen": {
            "PACKAGE_NAME": "com.crm.stcmobile"
        },
        "cordova-plugin-sslcertificatechecker": {
            "PACKAGE_NAME": "com.crm.stcmobile"
        },
        "cordova-plugin-whitelist": {
            "PACKAGE_NAME": "com.crm.stcmobile"
        },
        "cordova.plugins.diagnostic": {
            "PACKAGE_NAME": "com.crm.stcmobile"
        },
        "de.appplant.cordova.plugin.local-notification": {
            "PACKAGE_NAME": "com.crm.stcmobile"
        },
        "cordova-sqlite-storage": {
            "PACKAGE_NAME": "com.crm.stcmobile"
        },
        "cordova-plugin-root-detection": {
            "PACKAGE_NAME": "com.crm.stcmobile"
        },
        "cordova-plugin-jailbreak-detection": {
            "PACKAGE_NAME": "com.crm.stcmobile"
        },
        "cordova-plugin-privacyscreen": {
            "PACKAGE_NAME": "com.crm.stcmobile"
        },
        "cordova-plugin-background-fetch": {
            "PACKAGE_NAME": "com.crm.stcmobile"
        },
        "cordova-plugin-background-service": {
            "PACKAGE_NAME": "com.crm.stcmobile"
        },
        "cordova-plugin-otp-auto-verification": {
            "PACKAGE_NAME": "com.crm.stcmobile"
        },
        "cordova-plugin-googlemaps": {
            "PACKAGE_NAME": "com.crm.stcmobile"
        },
        "com.googlemaps.ios": {
            "PACKAGE_NAME": "com.crm.stcmobile"
        },
        "cordova-plugin-add-swift-support": {
            "PACKAGE_NAME": "com.crm.stcmobile"
        },
        "cordova-plugin-fingerprint-aio": {
            "PACKAGE_NAME": "com.crm.stcmobile"
        }
    },
    "dependent_plugins": {},
    "modules": [
        {
            "file": "plugins/call-number/www/CallNumber.js",
            "id": "call-number.CallNumber",
            "pluginId": "call-number",
            "clobbers": [
                "call"
            ]
        },
        {
            "file": "plugins/cordova-plugin-appversion/www/app-version.js",
            "id": "cordova-plugin-appversion.RareloopAppVersion",
            "pluginId": "cordova-plugin-appversion",
            "clobbers": [
                "AppVersion"
            ]
        },
        {
            "file": "plugins/cordova-plugin-base64-joewsh/www/Base64.js",
            "id": "cordova-plugin-base64-joewsh.Base64",
            "pluginId": "cordova-plugin-base64-joewsh",
            "clobbers": [
                "navigator.Base64"
            ]
        },
        {
            "file": "plugins/cordova-plugin-camera/www/CameraConstants.js",
            "id": "cordova-plugin-camera.Camera",
            "pluginId": "cordova-plugin-camera",
            "clobbers": [
                "Camera"
            ]
        },
        {
            "file": "plugins/cordova-plugin-camera/www/CameraPopoverOptions.js",
            "id": "cordova-plugin-camera.CameraPopoverOptions",
            "pluginId": "cordova-plugin-camera",
            "clobbers": [
                "CameraPopoverOptions"
            ]
        },
        {
            "file": "plugins/cordova-plugin-camera/www/Camera.js",
            "id": "cordova-plugin-camera.camera",
            "pluginId": "cordova-plugin-camera",
            "clobbers": [
                "navigator.camera"
            ]
        },
        {
            "file": "plugins/cordova-plugin-camera/src/browser/CameraProxy.js",
            "id": "cordova-plugin-camera.CameraProxy",
            "pluginId": "cordova-plugin-camera",
            "runs": true
        },
        {
            "file": "plugins/cordova-plugin-device/www/device.js",
            "id": "cordova-plugin-device.device",
            "pluginId": "cordova-plugin-device",
            "clobbers": [
                "device"
            ]
        },
        {
            "file": "plugins/cordova-plugin-device/src/browser/DeviceProxy.js",
            "id": "cordova-plugin-device.DeviceProxy",
            "pluginId": "cordova-plugin-device",
            "runs": true
        },
        {
            "file": "plugins/cordova-plugin-file/www/DirectoryEntry.js",
            "id": "cordova-plugin-file.DirectoryEntry",
            "pluginId": "cordova-plugin-file",
            "clobbers": [
                "window.DirectoryEntry"
            ]
        },
        {
            "file": "plugins/cordova-plugin-file/www/DirectoryReader.js",
            "id": "cordova-plugin-file.DirectoryReader",
            "pluginId": "cordova-plugin-file",
            "clobbers": [
                "window.DirectoryReader"
            ]
        },
        {
            "file": "plugins/cordova-plugin-file/www/Entry.js",
            "id": "cordova-plugin-file.Entry",
            "pluginId": "cordova-plugin-file",
            "clobbers": [
                "window.Entry"
            ]
        },
        {
            "file": "plugins/cordova-plugin-file/www/File.js",
            "id": "cordova-plugin-file.File",
            "pluginId": "cordova-plugin-file",
            "clobbers": [
                "window.File"
            ]
        },
        {
            "file": "plugins/cordova-plugin-file/www/FileEntry.js",
            "id": "cordova-plugin-file.FileEntry",
            "pluginId": "cordova-plugin-file",
            "clobbers": [
                "window.FileEntry"
            ]
        },
        {
            "file": "plugins/cordova-plugin-file/www/FileError.js",
            "id": "cordova-plugin-file.FileError",
            "pluginId": "cordova-plugin-file",
            "clobbers": [
                "window.FileError"
            ]
        },
        {
            "file": "plugins/cordova-plugin-file/www/FileReader.js",
            "id": "cordova-plugin-file.FileReader",
            "pluginId": "cordova-plugin-file",
            "clobbers": [
                "window.FileReader"
            ]
        },
        {
            "file": "plugins/cordova-plugin-file/www/FileSystem.js",
            "id": "cordova-plugin-file.FileSystem",
            "pluginId": "cordova-plugin-file",
            "clobbers": [
                "window.FileSystem"
            ]
        },
        {
            "file": "plugins/cordova-plugin-file/www/FileUploadOptions.js",
            "id": "cordova-plugin-file.FileUploadOptions",
            "pluginId": "cordova-plugin-file",
            "clobbers": [
                "window.FileUploadOptions"
            ]
        },
        {
            "file": "plugins/cordova-plugin-file/www/FileUploadResult.js",
            "id": "cordova-plugin-file.FileUploadResult",
            "pluginId": "cordova-plugin-file",
            "clobbers": [
                "window.FileUploadResult"
            ]
        },
        {
            "file": "plugins/cordova-plugin-file/www/FileWriter.js",
            "id": "cordova-plugin-file.FileWriter",
            "pluginId": "cordova-plugin-file",
            "clobbers": [
                "window.FileWriter"
            ]
        },
        {
            "file": "plugins/cordova-plugin-file/www/Flags.js",
            "id": "cordova-plugin-file.Flags",
            "pluginId": "cordova-plugin-file",
            "clobbers": [
                "window.Flags"
            ]
        },
        {
            "file": "plugins/cordova-plugin-file/www/LocalFileSystem.js",
            "id": "cordova-plugin-file.LocalFileSystem",
            "pluginId": "cordova-plugin-file",
            "clobbers": [
                "window.LocalFileSystem"
            ],
            "merges": [
                "window"
            ]
        },
        {
            "file": "plugins/cordova-plugin-file/www/Metadata.js",
            "id": "cordova-plugin-file.Metadata",
            "pluginId": "cordova-plugin-file",
            "clobbers": [
                "window.Metadata"
            ]
        },
        {
            "file": "plugins/cordova-plugin-file/www/ProgressEvent.js",
            "id": "cordova-plugin-file.ProgressEvent",
            "pluginId": "cordova-plugin-file",
            "clobbers": [
                "window.ProgressEvent"
            ]
        },
        {
            "file": "plugins/cordova-plugin-file/www/fileSystems.js",
            "id": "cordova-plugin-file.fileSystems",
            "pluginId": "cordova-plugin-file"
        },
        {
            "file": "plugins/cordova-plugin-file/www/requestFileSystem.js",
            "id": "cordova-plugin-file.requestFileSystem",
            "pluginId": "cordova-plugin-file",
            "clobbers": [
                "window.requestFileSystem"
            ]
        },
        {
            "file": "plugins/cordova-plugin-file/www/resolveLocalFileSystemURI.js",
            "id": "cordova-plugin-file.resolveLocalFileSystemURI",
            "pluginId": "cordova-plugin-file",
            "merges": [
                "window"
            ]
        },
        {
            "file": "plugins/cordova-plugin-file/www/browser/isChrome.js",
            "id": "cordova-plugin-file.isChrome",
            "pluginId": "cordova-plugin-file",
            "runs": true
        },
        {
            "file": "plugins/cordova-plugin-file/www/browser/Preparing.js",
            "id": "cordova-plugin-file.Preparing",
            "pluginId": "cordova-plugin-file",
            "runs": true
        },
        {
            "file": "plugins/cordova-plugin-file/src/browser/FileProxy.js",
            "id": "cordova-plugin-file.browserFileProxy",
            "pluginId": "cordova-plugin-file",
            "runs": true
        },
        {
            "file": "plugins/cordova-plugin-file/www/fileSystemPaths.js",
            "id": "cordova-plugin-file.fileSystemPaths",
            "pluginId": "cordova-plugin-file",
            "merges": [
                "cordova"
            ],
            "runs": true
        },
        {
            "file": "plugins/cordova-plugin-file/www/browser/FileSystem.js",
            "id": "cordova-plugin-file.firefoxFileSystem",
            "pluginId": "cordova-plugin-file",
            "merges": [
                "window.FileSystem"
            ]
        },
        {
            "file": "plugins/cordova-plugin-file-opener2/www/plugins.FileOpener2.js",
            "id": "cordova-plugin-file-opener2.FileOpener2",
            "pluginId": "cordova-plugin-file-opener2",
            "clobbers": [
                "cordova.plugins.fileOpener2"
            ]
        },
        {
            "file": "plugins/cordova-plugin-file-transfer/www/FileTransferError.js",
            "id": "cordova-plugin-file-transfer.FileTransferError",
            "pluginId": "cordova-plugin-file-transfer",
            "clobbers": [
                "window.FileTransferError"
            ]
        },
        {
            "file": "plugins/cordova-plugin-file-transfer/www/FileTransfer.js",
            "id": "cordova-plugin-file-transfer.FileTransfer",
            "pluginId": "cordova-plugin-file-transfer",
            "clobbers": [
                "window.FileTransfer"
            ]
        },
        {
            "file": "plugins/cordova-plugin-file-transfer/www/browser/FileTransfer.js",
            "id": "cordova-plugin-file-transfer.BrowserFileTransfer",
            "pluginId": "cordova-plugin-file-transfer",
            "clobbers": [
                "window.FileTransfer"
            ]
        },
        {
            "file": "plugins/cordova-plugin-inappbrowser/www/inappbrowser.js",
            "id": "cordova-plugin-inappbrowser.inappbrowser",
            "pluginId": "cordova-plugin-inappbrowser",
            "clobbers": [
                "cordova.InAppBrowser.open",
                "window.open"
            ]
        },
        {
            "file": "plugins/cordova-plugin-inappbrowser/src/browser/InAppBrowserProxy.js",
            "id": "cordova-plugin-inappbrowser.InAppBrowserProxy",
            "pluginId": "cordova-plugin-inappbrowser",
            "runs": true
        },
        {
            "file": "plugins/cordova-plugin-network-information/www/network.js",
            "id": "cordova-plugin-network-information.network",
            "pluginId": "cordova-plugin-network-information",
            "clobbers": [
                "navigator.connection",
                "navigator.network.connection"
            ]
        },
        {
            "file": "plugins/cordova-plugin-network-information/www/Connection.js",
            "id": "cordova-plugin-network-information.Connection",
            "pluginId": "cordova-plugin-network-information",
            "clobbers": [
                "Connection"
            ]
        },
        {
            "file": "plugins/cordova-plugin-network-information/src/browser/network.js",
            "id": "cordova-plugin-network-information.NetworkInfoProxy",
            "pluginId": "cordova-plugin-network-information",
            "runs": true
        },
        {
            "file": "plugins/cordova-plugin-splashscreen/www/splashscreen.js",
            "id": "cordova-plugin-splashscreen.SplashScreen",
            "pluginId": "cordova-plugin-splashscreen",
            "clobbers": [
                "navigator.splashscreen"
            ]
        },
        {
            "file": "plugins/cordova-plugin-splashscreen/src/browser/SplashScreenProxy.js",
            "id": "cordova-plugin-splashscreen.SplashScreenProxy",
            "pluginId": "cordova-plugin-splashscreen",
            "runs": true
        },
        {
            "file": "plugins/cordova-plugin-sslcertificatechecker/www/SSLCertificateChecker.js",
            "id": "cordova-plugin-sslcertificatechecker.SSLCertificateChecker",
            "pluginId": "cordova-plugin-sslcertificatechecker",
            "clobbers": [
                "window.plugins.sslCertificateChecker"
            ]
        },
        {
            "file": "plugins/de.appplant.cordova.plugin.local-notification/www/local-notification.js",
            "id": "de.appplant.cordova.plugin.local-notification.LocalNotification",
            "pluginId": "de.appplant.cordova.plugin.local-notification",
            "clobbers": [
                "cordova.plugins.notification.local",
                "plugin.notification.local"
            ]
        },
        {
            "file": "plugins/de.appplant.cordova.plugin.local-notification/www/local-notification-core.js",
            "id": "de.appplant.cordova.plugin.local-notification.LocalNotification.Core",
            "pluginId": "de.appplant.cordova.plugin.local-notification",
            "clobbers": [
                "cordova.plugins.notification.local.core",
                "plugin.notification.local.core"
            ]
        },
        {
            "file": "plugins/de.appplant.cordova.plugin.local-notification/www/local-notification-util.js",
            "id": "de.appplant.cordova.plugin.local-notification.LocalNotification.Util",
            "pluginId": "de.appplant.cordova.plugin.local-notification",
            "merges": [
                "cordova.plugins.notification.local.core",
                "plugin.notification.local.core"
            ]
        },
        {
            "file": "plugins/cordova-sqlite-storage/www/SQLitePlugin.js",
            "id": "cordova-sqlite-storage.SQLitePlugin",
            "pluginId": "cordova-sqlite-storage",
            "clobbers": [
                "SQLitePlugin"
            ]
        },
        {
            "file": "plugins/cordova-plugin-root-detection/www/rootdetection.js",
            "id": "cordova-plugin-root-detection.RootDetection",
            "pluginId": "cordova-plugin-root-detection",
            "clobbers": [
                "rootdetection"
            ]
        },
        {
            "file": "plugins/cordova-plugin-jailbreak-detection/www/jailbreakdetection.js",
            "id": "cordova-plugin-jailbreak-detection.JailbreakDetection",
            "pluginId": "cordova-plugin-jailbreak-detection",
            "clobbers": [
                "jailbreakdetection"
            ]
        },
        {
            "file": "plugins/cordova-plugin-background-fetch/www/BackgroundFetch.js",
            "id": "cordova-plugin-background-fetch.BackgroundFetch",
            "pluginId": "cordova-plugin-background-fetch",
            "clobbers": [
                "window.BackgroundFetch"
            ]
        },
        {
            "file": "plugins/cordova-plugin-otp-auto-verification/www/OTPAutoVerification.js",
            "id": "cordova-plugin-otp-auto-verification.OTPAutoVerification",
            "pluginId": "cordova-plugin-otp-auto-verification",
            "clobbers": [
                "OTPAutoVerification"
            ]
        },
        {
            "file": "plugins/cordova-plugin-googlemaps/www/BaseClass.js",
            "id": "cordova-plugin-googlemaps.BaseClass",
            "pluginId": "cordova-plugin-googlemaps",
            "runs": true
        },
        {
            "file": "plugins/cordova-plugin-googlemaps/www/BaseArrayClass.js",
            "id": "cordova-plugin-googlemaps.BaseArrayClass",
            "pluginId": "cordova-plugin-googlemaps",
            "runs": true
        },
        {
            "file": "plugins/cordova-plugin-googlemaps/www/LatLng.js",
            "id": "cordova-plugin-googlemaps.LatLng",
            "pluginId": "cordova-plugin-googlemaps",
            "runs": true
        },
        {
            "file": "plugins/cordova-plugin-googlemaps/www/LatLngBounds.js",
            "id": "cordova-plugin-googlemaps.LatLngBounds",
            "pluginId": "cordova-plugin-googlemaps",
            "runs": true
        },
        {
            "file": "plugins/cordova-plugin-googlemaps/www/VisibleRegion.js",
            "id": "cordova-plugin-googlemaps.VisibleRegion",
            "pluginId": "cordova-plugin-googlemaps",
            "runs": true
        },
        {
            "file": "plugins/cordova-plugin-googlemaps/www/Location.js",
            "id": "cordova-plugin-googlemaps.Location",
            "pluginId": "cordova-plugin-googlemaps",
            "runs": true
        },
        {
            "file": "plugins/cordova-plugin-googlemaps/www/CameraPosition.js",
            "id": "cordova-plugin-googlemaps.CameraPosition",
            "pluginId": "cordova-plugin-googlemaps",
            "runs": true
        },
        {
            "file": "plugins/cordova-plugin-googlemaps/www/Polyline.js",
            "id": "cordova-plugin-googlemaps.Polyline",
            "pluginId": "cordova-plugin-googlemaps",
            "runs": true
        },
        {
            "file": "plugins/cordova-plugin-googlemaps/www/Polygon.js",
            "id": "cordova-plugin-googlemaps.Polygon",
            "pluginId": "cordova-plugin-googlemaps",
            "runs": true
        },
        {
            "file": "plugins/cordova-plugin-googlemaps/www/Marker.js",
            "id": "cordova-plugin-googlemaps.Marker",
            "pluginId": "cordova-plugin-googlemaps",
            "runs": true
        },
        {
            "file": "plugins/cordova-plugin-googlemaps/www/HtmlInfoWindow.js",
            "id": "cordova-plugin-googlemaps.HtmlInfoWindow",
            "pluginId": "cordova-plugin-googlemaps",
            "runs": true
        },
        {
            "file": "plugins/cordova-plugin-googlemaps/www/Circle.js",
            "id": "cordova-plugin-googlemaps.Circle",
            "pluginId": "cordova-plugin-googlemaps",
            "runs": true
        },
        {
            "file": "plugins/cordova-plugin-googlemaps/www/TileOverlay.js",
            "id": "cordova-plugin-googlemaps.TileOverlay",
            "pluginId": "cordova-plugin-googlemaps",
            "runs": true
        },
        {
            "file": "plugins/cordova-plugin-googlemaps/www/GroundOverlay.js",
            "id": "cordova-plugin-googlemaps.GroundOverlay",
            "pluginId": "cordova-plugin-googlemaps",
            "runs": true
        },
        {
            "file": "plugins/cordova-plugin-googlemaps/www/Common.js",
            "id": "cordova-plugin-googlemaps.Common",
            "pluginId": "cordova-plugin-googlemaps",
            "runs": true
        },
        {
            "file": "plugins/cordova-plugin-googlemaps/www/encoding.js",
            "id": "cordova-plugin-googlemaps.encoding",
            "pluginId": "cordova-plugin-googlemaps",
            "runs": true
        },
        {
            "file": "plugins/cordova-plugin-googlemaps/www/spherical.js",
            "id": "cordova-plugin-googlemaps.spherical",
            "pluginId": "cordova-plugin-googlemaps",
            "runs": true
        },
        {
            "file": "plugins/cordova-plugin-googlemaps/www/Geocoder.js",
            "id": "cordova-plugin-googlemaps.Geocoder",
            "pluginId": "cordova-plugin-googlemaps",
            "runs": true
        },
        {
            "file": "plugins/cordova-plugin-googlemaps/www/ExternalService.js",
            "id": "cordova-plugin-googlemaps.ExternalService",
            "pluginId": "cordova-plugin-googlemaps",
            "runs": true
        },
        {
            "file": "plugins/cordova-plugin-googlemaps/www/Map.js",
            "id": "cordova-plugin-googlemaps.Map",
            "pluginId": "cordova-plugin-googlemaps",
            "runs": true
        },
        {
            "file": "plugins/cordova-plugin-googlemaps/www/event.js",
            "id": "cordova-plugin-googlemaps.event",
            "pluginId": "cordova-plugin-googlemaps",
            "runs": true
        },
        {
            "file": "plugins/cordova-plugin-googlemaps/www/MapTypeId.js",
            "id": "cordova-plugin-googlemaps.MapTypeId",
            "pluginId": "cordova-plugin-googlemaps",
            "runs": true
        },
        {
            "file": "plugins/cordova-plugin-googlemaps/www/KmlOverlay.js",
            "id": "cordova-plugin-googlemaps.KmlOverlay",
            "pluginId": "cordova-plugin-googlemaps",
            "runs": true
        },
        {
            "file": "plugins/cordova-plugin-googlemaps/www/Environment.js",
            "id": "cordova-plugin-googlemaps.Environment",
            "pluginId": "cordova-plugin-googlemaps",
            "runs": true
        },
        {
            "file": "plugins/cordova-plugin-googlemaps/www/MarkerCluster.js",
            "id": "cordova-plugin-googlemaps.MarkerCluster",
            "pluginId": "cordova-plugin-googlemaps",
            "runs": true
        },
        {
            "file": "plugins/cordova-plugin-googlemaps/www/Cluster.js",
            "id": "cordova-plugin-googlemaps.Cluster",
            "pluginId": "cordova-plugin-googlemaps",
            "runs": true
        },
        {
            "file": "plugins/cordova-plugin-googlemaps/www/geomodel.js",
            "id": "cordova-plugin-googlemaps.geomodel",
            "pluginId": "cordova-plugin-googlemaps",
            "runs": true
        },
        {
            "file": "plugins/cordova-plugin-googlemaps/www/googlemaps-cdv-plugin.js",
            "id": "cordova-plugin-googlemaps.CordovaGoogleMaps",
            "pluginId": "cordova-plugin-googlemaps",
            "clobbers": [
                "plugin.google.maps"
            ]
        },
        {
            "file": "plugins/cordova-plugin-fingerprint-aio/www/Fingerprint.js",
            "id": "cordova-plugin-fingerprint-aio.Fingerprint",
            "pluginId": "cordova-plugin-fingerprint-aio",
            "clobbers": [
                "Fingerprint"
            ]
        }
    ],
    "plugin_metadata": {
        "call-number": "0.0.2",
        "cordova-android-support-v4": "22.2.1",
        "cordova-disable-http-cache": "1.0.0",
        "cordova-plugin-app-event": "1.2.0",
        "cordova-plugin-appversion": "1.0.0",
        "cordova-plugin-base64-joewsh": "1.0.0",
        "cordova-plugin-compat": "1.1.0",
        "cordova-plugin-camera": "2.3.1",
        "cordova-plugin-device": "1.1.5-dev",
        "cordova-plugin-file": "4.3.1",
        "cordova-plugin-file-opener2": "2.0.7",
        "cordova-plugin-file-transfer": "1.6.1",
        "cordova-plugin-geolocation": "2.4.1",
        "cordova-plugin-inappbrowser": "1.7.0",
        "cordova-plugin-network-information": "1.3.1",
        "cordova-plugin-splashscreen": "4.0.1",
        "cordova-plugin-sslcertificatechecker": "5.0.0",
        "cordova-plugin-whitelist": "1.3.1",
        "cordova.plugins.diagnostic": "3.4.1",
        "de.appplant.cordova.plugin.local-notification": "0.8.4",
        "cordova-sqlite-storage": "2.0.3",
        "cordova-plugin-root-detection": "0.1.1",
        "cordova-plugin-jailbreak-detection": "0.1.0",
        "cordova-plugin-privacyscreen": "0.3.1",
        "cordova-plugin-background-fetch": "4.0.2",
        "cordova-plugin-background-service": "1.3.5",
        "cordova-plugin-otp-auto-verification": "0.0.6",
        "cordova-plugin-googlemaps": "2.0.11",
        "com.googlemaps.ios": "2.4.0",
        "cordova-plugin-add-swift-support": "1.6.2",
        "cordova-plugin-fingerprint-aio": "1.3.0"
    }
}